# Rhino

mtllib elasticBand.mtl
g Default
o object_1
usemtl material1
v -5.336297035217285 -2 -5.589543342590332
v -3.927553653717041 -2 -5.176726818084717
v -2.499953269958496 -2 -4.84751558303833
v -0.9925846457481384 -2 -4.688790798187256
v 0.5711016058921814 -2 -4.791963577270508
v 1.992767453193665 -2 -5.102015018463135
v 3.482534408569336 -2 -5.561169147491455
v 4.814327716827393 -2 -6.033380508422852
v 6.30062198638916 -2 -6.583882808685303
v 7.682318210601807 -2 -7.079839706420898
v 9.149920463562012 -2 -7.528374195098877
v 10.56456279754639 -2 -7.771797180175781
v 11.30858421325684 -2 -7.7696852684021
v 12.01363849639893 -2 -7.642337799072266
v 12.71674728393555 -2 -7.345454216003418
v 13.36464309692383 -2 -6.857627391815186
v 14.24899673461914 -2 -5.694921493530273
v 14.89507484436035 -2 -4.26733922958374
v 15.26706504821777 -2 -2.889899730682373
v 15.43405437469482 -2 -1.407489776611328
v 15.31268692016602 -2 0.1012516617774963
v 15.09568214416504 -2 0.8423346281051636
v 14.77213859558106 -2 1.501639842987061
v 14.33559322357178 -2 2.100061178207398
v 13.80928993225098 -2 2.611893892288208
v 12.48561096191406 -2 3.402778387069702
v 11.08809947967529 -2 3.810077905654907
v 9.626180648803711 -2 3.925768852233887
v 8.033496856689453 -2 3.769180536270142
v 6.653669834136963 -2 3.473420143127441
v 5.083730220794678 -2 3.046492576599121
v 3.726316452026367 -2 2.678533554077148
v 2.24045467376709 -2 2.383874654769898
v 0.7626715898513794 -2 2.285953283309937
v -0.7141695022583008 -2 2.378099918365479
v -2.180282354354858 -2 2.606405735015869
v -3.669579029083252 -2 2.917559862136841
v -5.138042449951172 -2 3.253407716751099
v -6.594888210296631 -2 3.566280841827393
v -8.071105003356934 -2 3.822250604629517
v -9.673969268798828 -2 3.980296134948731
v -11.17615985870361 -2 3.945573091506958
v -12.56018924713135 -2 3.648278713226318
v -13.2950325012207 -2 3.32378363609314
v -13.95474624633789 -2 2.899661540985107
v -14.9681921005249 -2 1.901698350906372
v -15.71297550201416 -2 0.6780023574829102
v -16.18886184692383 -2 -0.8571983575820923
v -16.24711990356445 -2 -2.340907335281372
v -15.90067100524902 -2 -3.76511287689209
v -15.55809211730957 -2 -4.461625099182129
v -15.11690616607666 -2 -5.091617584228516
v -14.07020854949951 -2 -6.039360523223877
v -13.42731189727783 -2 -6.397824287414551
v -12.72310543060303 -2 -6.654304504394531
v -11.21029472351074 -2 -6.844081878662109
v -9.691928863525391 -2 -6.720621585845947
v -8.264460563659668 -2 -6.43347978591919
v -6.832159519195557 -2 -6.044864654541016
v -5.482863903045654 -2 -5.111507892608643
v -7.099658012390137 -2 -5.60205888748169
v -8.830700874328613 -2 -6.05095911026001
v -10.49990272521973 -2 -6.314016819000244
v -12.11499214172363 -2 -6.274793148040772
v -12.96351718902588 -2 -6.050322532653809
v -13.7464714050293 -2 -5.653764247894287
v -14.40174865722656 -2 -5.131424427032471
v -14.94412326812744 -2 -4.492643356323242
v -15.35564994812012 -2 -3.768942594528198
v -15.63014793395996 -2 -2.982844829559326
v -15.76458263397217 -2 -2.093900918960571
v -15.73329257965088 -2 -1.195212006568909
v -15.33629989624023 -2 0.2914829850196838
v -14.90950107574463 -2 1.116604804992676
v -14.35093498229981 -2 1.859315276145935
v -13.76769065856934 -2 2.411609411239624
v -13.10125541687012 -2 2.860157012939453
v -12.35349845886231 -2 3.190483331680298
v -11.56008434295654 -2 3.388347625732422
v -9.798213005065918 -2 3.484891414642334
v -8.03000545501709 -2 3.310841083526611
v -6.405710697174072 -2 3.017770767211914
v -4.746016025543213 -2 2.650898456573486
v -3.056758165359497 -2 2.271840333938599
v -1.343110084533691 -2 1.957471251487732
v 0.3146720230579376 -2 1.795146822929382
v 2.002323150634766 -2 1.851366758346558
v 3.685115098953247 -2 2.153966665267944
v 5.337398529052734 -2 2.598133087158203
v 6.964140892028809 -2 3.035216569900513
v 8.549388885498047 -2 3.341929912567139
v 10.33648490905762 -2 3.403182506561279
v 11.96666049957275 -2 3.066571712493897
v 12.75806045532227 -2 2.718646049499512
v 13.47640895843506 -2 2.238293647766113
v 14.04877281188965 -2 1.664257645606995
v 14.48780250549316 -2 0.9827795028686523
v 14.79533958435059 -2 0.124742217361927
v 14.92392063140869 -2 -0.7786162495613098
v 14.85093307495117 -2 -2.354174852371216
v 14.41649627685547 -2 -4.120907783508301
v 13.71181392669678 -2 -5.618159770965576
v 13.23326587677002 -2 -6.271859645843506
v 12.63033485412598 -2 -6.810633659362793
v 11.81021595001221 -2 -7.179784774780273
v 10.91528129577637 -2 -7.285098075866699
v 9.25958251953125 -2 -7.040324211120606
v 7.633854866027832 -2 -6.533885955810547
v 6.050376415252686 -2 -5.957871913909912
v 4.396318435668945 -2 -5.350113868713379
v 2.822775363922119 -2 -4.822109222412109
v 1.230972647666931 -2 -4.404251575469971
v -0.5284251570701599 -2 -4.189952850341797
v -2.240314960479736 -2 -4.298186302185059
v -3.800740242004395 -2 -4.62529468536377
v -5.336297035217285 0 -5.589543342590332
v -6.832159519195557 0 -6.044864654541016
v -8.264460563659668 0 -6.43347978591919
v -9.691928863525391 0 -6.720621585845947
v -11.21029472351074 0 -6.844081878662109
v -12.72310543060303 0 -6.654304504394531
v -13.42731189727783 0 -6.397824287414551
v -14.07020854949951 0 -6.039360523223877
v -15.11690616607666 0 -5.091617584228516
v -15.55809211730957 0 -4.461625099182129
v -15.90067100524902 0 -3.76511287689209
v -16.24711990356445 0 -2.340907335281372
v -16.18886184692383 0 -0.8571983575820923
v -15.71297550201416 0 0.6780023574829102
v -14.9681921005249 0 1.901698350906372
v -13.95474624633789 0 2.899661540985107
v -13.2950325012207 0 3.32378363609314
v -12.56018924713135 0 3.648278713226318
v -11.17615985870361 0 3.945573091506958
v -9.673969268798828 0 3.980296134948731
v -8.071105003356934 0 3.822250604629517
v -6.594888210296631 0 3.566280841827393
v -5.138042449951172 0 3.253407716751099
v -3.669579029083252 0 2.917559862136841
v -2.180282354354858 0 2.606405735015869
v -0.7141695022583008 0 2.378099918365479
v 0.7626715898513794 0 2.285953283309937
v 2.24045467376709 0 2.383874654769898
v 3.726316452026367 0 2.678533554077148
v 5.083730220794678 0 3.046492576599121
v 6.653669834136963 0 3.473420143127441
v 8.033496856689453 0 3.769180536270142
v 9.626180648803711 0 3.925768852233887
v 11.08809947967529 0 3.810077905654907
v 12.48561096191406 0 3.402778387069702
v 13.80928993225098 0 2.611893892288208
v 14.33559322357178 0 2.100061178207398
v 14.77213859558106 0 1.501639842987061
v 15.09568214416504 0 0.8423346281051636
v 15.31268692016602 0 0.1012516617774963
v 15.43405437469482 0 -1.407489776611328
v 15.26706504821777 0 -2.889899730682373
v 14.89507484436035 0 -4.26733922958374
v 14.24899673461914 0 -5.694921493530273
v 13.36464309692383 0 -6.857627391815186
v 12.71674728393555 0 -7.345454216003418
v 12.01363849639893 0 -7.642337799072266
v 11.30858421325684 0 -7.7696852684021
v 10.56456279754639 0 -7.771797180175781
v 9.149920463562012 0 -7.528374195098877
v 7.682318210601807 0 -7.079839706420898
v 6.30062198638916 0 -6.583882808685303
v 4.814327716827393 0 -6.033380508422852
v 3.482534408569336 0 -5.561169147491455
v 1.992767453193665 0 -5.102015018463135
v 0.5711016058921814 0 -4.791963577270508
v -0.9925846457481384 0 -4.688790798187256
v -2.499953269958496 0 -4.84751558303833
v -3.927553653717041 0 -5.176726818084717
v -5.482863903045654 0 -5.111507892608643
v -3.800740242004395 0 -4.62529468536377
v -2.240314960479736 0 -4.298186302185059
v -0.5284251570701599 0 -4.189952850341797
v 1.230972647666931 0 -4.404251575469971
v 2.822775363922119 0 -4.822109222412109
v 4.396318435668945 0 -5.350113868713379
v 6.050376415252686 0 -5.957871913909912
v 7.633854866027832 0 -6.533885955810547
v 9.25958251953125 0 -7.040324211120606
v 10.91528129577637 0 -7.285098075866699
v 11.81021595001221 0 -7.179784774780273
v 12.63033485412598 0 -6.810633659362793
v 13.23326587677002 0 -6.271859645843506
v 13.71181392669678 0 -5.618159770965576
v 14.41649627685547 0 -4.120907783508301
v 14.85093307495117 0 -2.354174852371216
v 14.92392063140869 0 -0.7786162495613098
v 14.79533958435059 0 0.124742217361927
v 14.48780250549316 0 0.9827795028686523
v 14.04877281188965 0 1.664257645606995
v 13.47640895843506 0 2.238293647766113
v 12.75806045532227 0 2.718646049499512
v 11.96666049957275 0 3.066571712493897
v 10.33648490905762 0 3.403182506561279
v 8.549388885498047 0 3.341929912567139
v 6.964140892028809 0 3.035216569900513
v 5.337398529052734 0 2.598133087158203
v 3.685115098953247 0 2.153966665267944
v 2.002323150634766 0 1.851366758346558
v 0.3146720230579376 0 1.795146822929382
v -1.343110084533691 0 1.957471251487732
v -3.056758165359497 0 2.271840333938599
v -4.746016025543213 0 2.650898456573486
v -6.405710697174072 0 3.017770767211914
v -8.03000545501709 0 3.310841083526611
v -9.798213005065918 0 3.484891414642334
v -11.56008434295654 0 3.388347625732422
v -12.35349845886231 0 3.190483331680298
v -13.10125541687012 0 2.860157012939453
v -13.76769065856934 0 2.411609411239624
v -14.35093498229981 0 1.859315276145935
v -14.90950107574463 0 1.116604804992676
v -15.33629989624023 0 0.2914829850196838
v -15.73329257965088 0 -1.195212006568909
v -15.76458263397217 0 -2.093900918960571
v -15.63014793395996 0 -2.982844829559326
v -15.35564994812012 0 -3.768942594528198
v -14.94412326812744 0 -4.492643356323242
v -14.40174865722656 0 -5.131424427032471
v -13.7464714050293 0 -5.653764247894287
v -12.96351718902588 0 -6.050322532653809
v -12.11499214172363 0 -6.274793148040772
v -10.49990272521973 0 -6.314016819000244
v -8.830700874328613 0 -6.05095911026001
v -7.099658012390137 0 -5.60205888748169
v -5.336297035217285 0 -5.589543342590332
v -5.336297035217285 -2 -5.589543342590332
v -3.927553653717041 0 -5.176726818084717
v -3.927553653717041 -2 -5.176726818084717
v -2.499953269958496 0 -4.84751558303833
v -2.499953269958496 -2 -4.84751558303833
v -0.9925846457481384 0 -4.688790798187256
v -0.9925846457481384 -2 -4.688790798187256
v 0.5711016058921814 0 -4.791963577270508
v 0.5711016058921814 -2 -4.791963577270508
v 1.992767453193665 0 -5.102015018463135
v 1.992767453193665 -2 -5.102015018463135
v 3.482534408569336 0 -5.561169147491455
v 3.482534408569336 -2 -5.561169147491455
v 4.814327716827393 0 -6.033380508422852
v 4.814327716827393 -2 -6.033380508422852
v 6.30062198638916 0 -6.583882808685303
v 6.30062198638916 -2 -6.583882808685303
v 7.682318210601807 0 -7.079839706420898
v 7.682318210601807 -2 -7.079839706420898
v 9.149920463562012 0 -7.528374195098877
v 9.149920463562012 -2 -7.528374195098877
v 10.56456279754639 0 -7.771797180175781
v 10.56456279754639 -2 -7.771797180175781
v 12.01363849639893 0 -7.642337799072266
v 12.01363849639893 -2 -7.642337799072266
v 13.36464309692383 0 -6.857627391815186
v 13.36464309692383 -2 -6.857627391815186
v 14.24899673461914 0 -5.694921493530273
v 14.24899673461914 -2 -5.694921493530273
v 14.89507484436035 0 -4.26733922958374
v 14.89507484436035 -2 -4.26733922958374
v 15.26706504821777 0 -2.889899730682373
v 15.26706504821777 -2 -2.889899730682373
v 15.43405437469482 0 -1.407489776611328
v 15.43405437469482 -2 -1.407489776611328
v 15.31268692016602 0 0.1012516617774963
v 15.31268692016602 -2 0.1012516617774963
v 14.77213859558106 0 1.501639842987061
v 14.77213859558106 -2 1.501639842987061
v 13.80928993225098 0 2.611893892288208
v 13.80928993225098 -2 2.611893892288208
v 12.48561096191406 0 3.402778387069702
v 12.48561096191406 -2 3.402778387069702
v 11.08809947967529 0 3.810077905654907
v 11.08809947967529 -2 3.810077905654907
v 9.626180648803711 0 3.925768852233887
v 9.626180648803711 -2 3.925768852233887
v 8.033496856689453 0 3.769180536270142
v 8.033496856689453 -2 3.769180536270142
v 6.653669834136963 0 3.473420143127441
v 6.653669834136963 -2 3.473420143127441
v 5.083730220794678 0 3.046492576599121
v 5.083730220794678 -2 3.046492576599121
v 3.726316452026367 0 2.678533554077148
v 3.726316452026367 -2 2.678533554077148
v 2.24045467376709 0 2.383874654769898
v 2.24045467376709 -2 2.383874654769898
v 0.7626715898513794 0 2.285953283309937
v 0.7626715898513794 -2 2.285953283309937
v -0.7141695022583008 0 2.378099918365479
v -0.7141695022583008 -2 2.378099918365479
v -2.180282354354858 0 2.606405735015869
v -2.180282354354858 -2 2.606405735015869
v -3.669579029083252 0 2.917559862136841
v -3.669579029083252 -2 2.917559862136841
v -5.138042449951172 0 3.253407716751099
v -5.138042449951172 -2 3.253407716751099
v -6.594888210296631 0 3.566280841827393
v -6.594888210296631 -2 3.566280841827393
v -8.071105003356934 0 3.822250604629517
v -8.071105003356934 -2 3.822250604629517
v -9.673969268798828 0 3.980296134948731
v -9.673969268798828 -2 3.980296134948731
v -11.17615985870361 0 3.945573091506958
v -11.17615985870361 -2 3.945573091506958
v -12.56018924713135 0 3.648278713226318
v -12.56018924713135 -2 3.648278713226318
v -13.95474624633789 0 2.899661540985107
v -13.95474624633789 -2 2.899661540985107
v -14.9681921005249 0 1.901698350906372
v -14.9681921005249 -2 1.901698350906372
v -15.71297550201416 0 0.6780023574829102
v -15.71297550201416 -2 0.6780023574829102
v -16.18886184692383 0 -0.8571983575820923
v -16.18886184692383 -2 -0.8571983575820923
v -16.24711990356445 0 -2.340907335281372
v -16.24711990356445 -2 -2.340907335281372
v -15.90067100524902 0 -3.76511287689209
v -15.90067100524902 -2 -3.76511287689209
v -15.11690616607666 0 -5.091617584228516
v -15.11690616607666 -2 -5.091617584228516
v -14.07020854949951 0 -6.039360523223877
v -14.07020854949951 -2 -6.039360523223877
v -12.72310543060303 0 -6.654304504394531
v -12.72310543060303 -2 -6.654304504394531
v -11.21029472351074 0 -6.844081878662109
v -11.21029472351074 -2 -6.844081878662109
v -9.691928863525391 0 -6.720621585845947
v -9.691928863525391 -2 -6.720621585845947
v -8.264460563659668 0 -6.43347978591919
v -8.264460563659668 -2 -6.43347978591919
v -6.832159519195557 0 -6.044864654541016
v -6.832159519195557 -2 -6.044864654541016
v -5.336297035217285 0 -5.589543342590332
v -5.336297035217285 -2 -5.589543342590332
v 11.30858421325684 -2 -7.7696852684021
v 11.30858421325684 0 -7.7696852684021
v 12.71674728393555 -2 -7.345454216003418
v 12.71674728393555 0 -7.345454216003418
v 15.09568214416504 -2 0.8423346281051636
v 15.09568214416504 0 0.8423346281051636
v 14.33559322357178 -2 2.100061178207398
v 14.33559322357178 0 2.100061178207398
v -13.2950325012207 -2 3.32378363609314
v -13.2950325012207 0 3.32378363609314
v -15.55809211730957 -2 -4.461625099182129
v -15.55809211730957 0 -4.461625099182129
v -13.42731189727783 -2 -6.397824287414551
v -13.42731189727783 0 -6.397824287414551
v -5.482863903045654 0 -5.111507892608643
v -5.482863903045654 -2 -5.111507892608643
v -3.800740242004395 0 -4.62529468536377
v -3.800740242004395 -2 -4.62529468536377
v -2.240314960479736 0 -4.298186302185059
v -2.240314960479736 -2 -4.298186302185059
v -0.5284251570701599 0 -4.189952850341797
v -0.5284251570701599 -2 -4.189952850341797
v 1.230972647666931 0 -4.404251575469971
v 1.230972647666931 -2 -4.404251575469971
v 2.822775363922119 0 -4.822109222412109
v 2.822775363922119 -2 -4.822109222412109
v 4.396318435668945 0 -5.350113868713379
v 4.396318435668945 -2 -5.350113868713379
v 6.050376415252686 0 -5.957871913909912
v 6.050376415252686 -2 -5.957871913909912
v 7.633854866027832 0 -6.533885955810547
v 7.633854866027832 -2 -6.533885955810547
v 9.25958251953125 0 -7.040324211120606
v 9.25958251953125 -2 -7.040324211120606
v 10.91528129577637 0 -7.285098075866699
v 10.91528129577637 -2 -7.285098075866699
v 12.63033485412598 0 -6.810633659362793
v 12.63033485412598 -2 -6.810633659362793
v 13.71181392669678 0 -5.618159770965576
v 13.71181392669678 -2 -5.618159770965576
v 14.41649627685547 0 -4.120907783508301
v 14.41649627685547 -2 -4.120907783508301
v 14.85093307495117 0 -2.354174852371216
v 14.85093307495117 -2 -2.354174852371216
v 14.92392063140869 0 -0.7786162495613098
v 14.92392063140869 -2 -0.7786162495613098
v 14.48780250549316 0 0.9827795028686523
v 14.48780250549316 -2 0.9827795028686523
v 13.47640895843506 0 2.238293647766113
v 13.47640895843506 -2 2.238293647766113
v 11.96666049957275 0 3.066571712493897
v 11.96666049957275 -2 3.066571712493897
v 10.33648490905762 0 3.403182506561279
v 10.33648490905762 -2 3.403182506561279
v 8.549388885498047 0 3.341929912567139
v 8.549388885498047 -2 3.341929912567139
v 6.964140892028809 0 3.035216569900513
v 6.964140892028809 -2 3.035216569900513
v 5.337398529052734 0 2.598133087158203
v 5.337398529052734 -2 2.598133087158203
v 3.685115098953247 0 2.153966665267944
v 3.685115098953247 -2 2.153966665267944
v 2.002323150634766 0 1.851366758346558
v 2.002323150634766 -2 1.851366758346558
v 0.3146720230579376 0 1.795146822929382
v 0.3146720230579376 -2 1.795146822929382
v -1.343110084533691 0 1.957471251487732
v -1.343110084533691 -2 1.957471251487732
v -3.056758165359497 0 2.271840333938599
v -3.056758165359497 -2 2.271840333938599
v -4.746016025543213 0 2.650898456573486
v -4.746016025543213 -2 2.650898456573486
v -6.405710697174072 0 3.017770767211914
v -6.405710697174072 -2 3.017770767211914
v -8.03000545501709 0 3.310841083526611
v -8.03000545501709 -2 3.310841083526611
v -9.798213005065918 0 3.484891414642334
v -9.798213005065918 -2 3.484891414642334
v -11.56008434295654 0 3.388347625732422
v -11.56008434295654 -2 3.388347625732422
v -13.10125541687012 0 2.860157012939453
v -13.10125541687012 -2 2.860157012939453
v -14.35093498229981 0 1.859315276145935
v -14.35093498229981 -2 1.859315276145935
v -15.33629989624023 0 0.2914829850196838
v -15.33629989624023 -2 0.2914829850196838
v -15.73329257965088 0 -1.195212006568909
v -15.73329257965088 -2 -1.195212006568909
v -15.63014793395996 0 -2.982844829559326
v -15.63014793395996 -2 -2.982844829559326
v -14.94412326812744 0 -4.492643356323242
v -14.94412326812744 -2 -4.492643356323242
v -13.7464714050293 0 -5.653764247894287
v -13.7464714050293 -2 -5.653764247894287
v -12.11499214172363 0 -6.274793148040772
v -12.11499214172363 -2 -6.274793148040772
v -10.49990272521973 0 -6.314016819000244
v -10.49990272521973 -2 -6.314016819000244
v -8.830700874328613 0 -6.05095911026001
v -8.830700874328613 -2 -6.05095911026001
v -7.099658012390137 0 -5.60205888748169
v -7.099658012390137 -2 -5.60205888748169
v -5.482863903045654 0 -5.111507892608643
v -5.482863903045654 -2 -5.111507892608643
v 11.81021595001221 -2 -7.179784774780273
v 11.81021595001221 0 -7.179784774780273
v 13.23326587677002 -2 -6.271859645843506
v 13.23326587677002 0 -6.271859645843506
v 14.79533958435059 -2 0.124742217361927
v 14.79533958435059 0 0.124742217361927
v 14.04877281188965 -2 1.664257645606995
v 14.04877281188965 0 1.664257645606995
v 12.75806045532227 -2 2.718646049499512
v 12.75806045532227 0 2.718646049499512
v -12.35349845886231 -2 3.190483331680298
v -12.35349845886231 0 3.190483331680298
v -13.76769065856934 -2 2.411609411239624
v -13.76769065856934 0 2.411609411239624
v -14.90950107574463 -2 1.116604804992676
v -14.90950107574463 0 1.116604804992676
v -15.76458263397217 -2 -2.093900918960571
v -15.76458263397217 0 -2.093900918960571
v -15.35564994812012 -2 -3.768942594528198
v -15.35564994812012 0 -3.768942594528198
v -14.40174865722656 -2 -5.131424427032471
v -14.40174865722656 0 -5.131424427032471
v -12.96351718902588 -2 -6.050322532653809
v -12.96351718902588 0 -6.050322532653809
vt 0.8593752384185791 0.3404572904109955
vt 0.8476282954216003 0.384127289056778
vt 0.8382604122161865 0.4283818006515503
vt 0.8337438106536865 0.4751090705394745
vt 0.8366796374320984 0.5235821604728699
vt 0.8455023169517517 0.567652702331543
vt 0.8585678339004517 0.6138343214988709
vt 0.8720048666000366 0.6551188826560974
vt 0.8876697421073914 0.7011928558349609
vt 0.9017824530601502 0.744024395942688
vt 0.9145457744598389 0.7895188927650452
vt 0.9214724898338318 0.8333717584609985
vt 0.9214124083518982 0.8564358353614807
vt 0.9177886843681335 0.8782919645309448
vt 0.9093406796455383 0.900087833404541
vt 0.8954592943191528 0.9201721549034119
vt 0.8623738288879395 0.9475864171981812
vt 0.8217511773109436 0.9676142930984497
vt 0.7825553417205811 0.9791457056999207
vt 0.7403725385665894 0.9843222498893738
vt 0.6974404454231262 0.9805599451065064
vt 0.6763525009155273 0.9738329648971558
vt 0.6575915813446045 0.9638033509254456
vt 0.6405631899833679 0.9502707719802856
vt 0.6259986758232117 0.9339557886123657
vt 0.6034936308860779 0.8929227590560913
vt 0.5919036865234375 0.8496010303497315
vt 0.5886116027832031 0.8042826652526856
vt 0.5930674076080322 0.7549106478691101
vt 0.6014834642410278 0.7121371030807495
vt 0.6136319041252136 0.6634702086448669
vt 0.6241024136543274 0.6213913559913635
vt 0.6324871182441711 0.5753307938575745
vt 0.6352735161781311 0.5295206308364868
vt 0.6326513886451721 0.4837397038936615
vt 0.6261548399925232 0.4382913708686829
vt 0.617300808429718 0.3921242952346802
vt 0.607744038105011 0.3466030657291412
vt 0.5988410711288452 0.3014419674873352
vt 0.5915572643280029 0.2556803524494171
vt 0.5870600342750549 0.205992802977562
vt 0.5880481004714966 0.1594260632991791
vt 0.596507728099823 0.1165222227573395
vt 0.6057414412498474 0.09374264627695084
vt 0.617810070514679 0.07329202443361282
vt 0.6462076902389526 0.04187595844268799
vt 0.6810286641120911 0.01878826506435871
vt 0.7247136831283569 0.004036135971546173
vt 0.7669334411621094 0.002230171812698245
vt 0.8074600100517273 0.01296985242515802
vt 0.8272796869277954 0.02358953654766083
vt 0.8452064990997315 0.03726593777537346
vt 0.8721750378608704 0.06971277296543121
vt 0.8823752999305725 0.08964207023382187
vt 0.88967365026474 0.1114719212055206
vt 0.8950738310813904 0.1583678871393204
vt 0.8915606737136841 0.2054360806941986
vt 0.883389949798584 0.2496864944696426
vt 0.8723316788673401 0.2940867245197296
vt 0.8457724452018738 0.3359138667583466
vt 0.8597313761711121 0.2857944965362549
vt 0.8725050687789917 0.2321334779262543
vt 0.8799905180931091 0.1803895086050034
vt 0.8788744211196899 0.1303229629993439
vt 0.87248694896698 0.1040193513035774
vt 0.8612026572227478 0.07974837720394135
vt 0.8463391661643982 0.05943528562784195
vt 0.8281623125076294 0.04262207821011543
vt 0.8075690269470215 0.02986506372690201
vt 0.7852001786231995 0.02135584875941277
vt 0.7599047422409058 0.01718847081065178
vt 0.7343320250511169 0.0181584395468235
vt 0.6920272707939148 0.03046489879488945
vt 0.6685479879379273 0.0436953529715538
vt 0.6474137306213379 0.06101046875119209
vt 0.6316978931427002 0.07909058034420013
vt 0.6189342141151428 0.09974958747625351
vt 0.6095345616340637 0.1229294762015343
vt 0.6039042472839356 0.1475246846675873
vt 0.601157009601593 0.2021413743495941
vt 0.6061097383499146 0.2569544315338135
vt 0.6144492030143738 0.307306319475174
vt 0.6248887777328491 0.3587555885314941
vt 0.6356750726699829 0.411121279001236
vt 0.6446206569671631 0.4642430543899536
vt 0.6492396593093872 0.5156329870223999
vt 0.6476399302482605 0.5679489374160767
vt 0.6390292644500732 0.6201142072677612
vt 0.6263902187347412 0.6713336706161499
vt 0.6139528155326843 0.7217614650726318
vt 0.6052250862121582 0.7709028720855713
vt 0.6034821271896362 0.8263015151023865
vt 0.6130605936050415 0.8768357038497925
vt 0.6229609847068787 0.9013684988021851
vt 0.6366297006607056 0.9236367344856262
vt 0.6529642343521118 0.9413796067237854
vt 0.6723560690879822 0.9549891948699951
vt 0.6967719793319702 0.9645226001739502
vt 0.7224775552749634 0.9685084819793701
vt 0.7673109769821167 0.9662459492683411
vt 0.8175843954086304 0.952778697013855
vt 0.8601895570755005 0.9309341311454773
vt 0.8787909150123596 0.916099488735199
vt 0.8941220641136169 0.8974091410636902
vt 0.9046264290809631 0.8719860315322876
vt 0.9076232314109802 0.8442437648773193
vt 0.9006580114364624 0.7929183840751648
vt 0.8862470388412476 0.7425220608711243
vt 0.8698562383651733 0.6934354305267334
vt 0.8525621294975281 0.6421608924865723
vt 0.8375374674797058 0.5933822989463806
vt 0.8256471157073975 0.5440376400947571
vt 0.8195490837097168 0.4894976615905762
vt 0.822628915309906 0.4364303946495056
vt 0.8319370150566101 0.3880583941936493
vt 0.2234746217727661 0.3404572904109955
vt 0.2105181962251663 0.2940867245197296
vt 0.1994599401950836 0.2496864944696426
vt 0.1912891566753388 0.2054360806941986
vt 0.1877760291099548 0.1583678871393204
vt 0.1931762248277664 0.1114719212055206
vt 0.2004745453596115 0.08964207023382187
vt 0.2106748223304749 0.06971277296543121
vt 0.237643375992775 0.03726593777537346
vt 0.2555701732635498 0.02358953654766083
vt 0.2753898203372955 0.01296985242515802
vt 0.3159163892269135 0.002230171812698245
vt 0.3581361770629883 0.004036135971546173
vt 0.4018211960792542 0.01878826506435871
vt 0.4366421699523926 0.04187595844268799
vt 0.4650397598743439 0.07329202443361282
vt 0.4771083891391754 0.09374264627695084
vt 0.4863421022891998 0.1165222227573395
vt 0.494801789522171 0.1594260632991791
vt 0.4957898557186127 0.205992802977562
vt 0.4912925660610199 0.2556803524494171
vt 0.4840087890625 0.3014419674873352
vt 0.4751058220863342 0.3466030657291412
vt 0.4655490815639496 0.3921242952346802
vt 0.456695020198822 0.4382913708686829
vt 0.4501984417438507 0.4837397038936615
vt 0.4475763440132141 0.5295206308364868
vt 0.4503627717494965 0.5753307938575745
vt 0.4587474465370178 0.6213913559913635
vt 0.4692179262638092 0.6634702086448669
vt 0.4813663959503174 0.7121371030807495
vt 0.4897824227809906 0.7549106478691101
vt 0.4942382276058197 0.8042826652526856
vt 0.4909461736679077 0.8496010303497315
vt 0.4793562293052673 0.8929227590560913
vt 0.4568511843681335 0.9339557886123657
vt 0.4422867000102997 0.9502707719802856
vt 0.4252582788467407 0.9638033509254456
vt 0.4064973592758179 0.9738329648971558
vt 0.385409414768219 0.9805599451065064
vt 0.3424773216247559 0.9843222498893738
vt 0.3002945184707642 0.9791457056999207
vt 0.2610986828804016 0.9676142930984497
vt 0.2204760164022446 0.9475864171981812
vt 0.1873905658721924 0.9201721549034119
vt 0.1735091805458069 0.900087833404541
vt 0.1650611758232117 0.8782919645309448
vt 0.161437451839447 0.8564358353614807
vt 0.161377340555191 0.8333717584609985
vt 0.1683040708303452 0.7895188927650452
vt 0.1810673922300339 0.744024395942688
vt 0.1951801180839539 0.7011928558349609
vt 0.2108449786901474 0.6551188826560974
vt 0.2242820113897324 0.6138343214988709
vt 0.2373475134372711 0.567652702331543
vt 0.2461702078580856 0.5235821604728699
vt 0.2491060495376587 0.4751090705394745
vt 0.2445894479751587 0.4283818006515503
vt 0.2352215647697449 0.384127289056778
vt 0.2370774000883102 0.3359138667583466
vt 0.2509128749370575 0.3880583941936493
vt 0.2602209150791168 0.4364303946495056
vt 0.2633007764816284 0.4894976615905762
vt 0.2572027742862701 0.5440376400947571
vt 0.2453123927116394 0.5933822989463806
vt 0.2302877157926559 0.6421608924865723
vt 0.2129936069250107 0.6934354305267334
vt 0.1966028213500977 0.7425220608711243
vt 0.1821918338537216 0.7929183840751648
vt 0.1752266436815262 0.8442437648773193
vt 0.1782234013080597 0.8719860315322876
vt 0.1887278109788895 0.8974091410636902
vt 0.2040589302778244 0.916099488735199
vt 0.2226603180170059 0.9309341311454773
vt 0.2652654945850372 0.952778697013855
vt 0.3155388534069061 0.9662459492683411
vt 0.3603722751140595 0.9685084819793701
vt 0.3860778510570526 0.9645226001739502
vt 0.410493791103363 0.9549891948699951
vt 0.4298856556415558 0.9413796067237854
vt 0.4462201595306397 0.9236367344856262
vt 0.4598888754844666 0.9013684988021851
vt 0.4697892963886261 0.8768357038497925
vt 0.479367733001709 0.8263015151023865
vt 0.477624773979187 0.7709028720855713
vt 0.4688970744609833 0.7217614650726318
vt 0.4564596116542816 0.6713336706161499
vt 0.443820595741272 0.6201142072677612
vt 0.4352099597454071 0.5679489374160767
vt 0.4336101710796356 0.5156329870223999
vt 0.4382292032241821 0.4642430543899536
vt 0.4471747577190399 0.411121279001236
vt 0.4579610824584961 0.3587555885314941
vt 0.4684006273746491 0.307306319475174
vt 0.4767401218414307 0.2569544315338135
vt 0.4816928207874298 0.2021413743495941
vt 0.4789456129074097 0.1475246846675873
vt 0.4733152687549591 0.1229294762015343
vt 0.4639156460762024 0.09974958747625351
vt 0.451151967048645 0.07909058034420013
vt 0.4354361295700073 0.06101046875119209
vt 0.414301872253418 0.0436953529715538
vt 0.390822559595108 0.03046489879488945
vt 0.3485178053379059 0.0181584395468235
vt 0.3229451179504395 0.01718847081065178
vt 0.2976497113704681 0.02135584875941277
vt 0.2752808332443237 0.02986506372690201
vt 0.2546875476837158 0.04262207821011543
vt 0.2365106642246246 0.05943528562784195
vt 0.2216471880674362 0.07974837720394135
vt 0.210362896323204 0.1040193513035774
vt 0.2039754539728165 0.1303229629993439
vt 0.2028593271970749 0.1803895086050034
vt 0.2103447765111923 0.2321334779262543
vt 0.2231184840202332 0.2857944965362549
vt 0.0981689989566803 0
vt 0.07257861644029617 0
vt 0.0981689989566803 0.02016722597181797
vt 0.07257861644029617 0.02016722597181797
vt 0.0981689989566803 0.04241343587636948
vt 0.07257861644029617 0.04241343587636948
vt 0.0981689989566803 0.06665022671222687
vt 0.07257861644029617 0.06665022671222687
vt 0.0981689989566803 0.09077592939138413
vt 0.07257861644029617 0.09077592939138413
vt 0.0981689989566803 0.110943153500557
vt 0.07257861644029617 0.110943153500557
vt 0.0981689989566803 0.1308782547712326
vt 0.07257861644029617 0.1308782547712326
vt 0.0981689989566803 0.1481817364692688
vt 0.07257861644029617 0.1481817364692688
vt 0.0981689989566803 0.1673541963100433
vt 0.07257861644029617 0.1673541963100433
vt 0.0981689989566803 0.1854211688041687
vt 0.07257861644029617 0.1854211688041687
vt 0.0981689989566803 0.2052911072969437
vt 0.07257861644029617 0.2052911072969437
vt 0.0981689989566803 0.2255599498748779
vt 0.07257861644029617 0.2255599498748779
vt 0.0981689989566803 0.2482020705938339
vt 0.07257861644029617 0.2482020705938339
vt 0.0981689989566803 0.2723277807235718
vt 0.07257861644029617 0.2723277807235718
vt 0.0981689989566803 0.2912238836288452
vt 0.07257861644029617 0.2912238836288452
vt 0.0981689989566803 0.3090806901454926
vt 0.07257861644029617 0.3090806901454926
vt 0.0981689989566803 0.3245418071746826
vt 0.07257861644029617 0.3245418071746826
vt 0.0981689989566803 0.3408375382423401
vt 0.07257861644029617 0.3408375382423401
vt 0.0981689989566803 0.3584396243095398
vt 0.07257861644029617 0.3584396243095398
vt 0.0981689989566803 0.3778465390205383
vt 0.07257861644029617 0.3778465390205383
vt 0.0981689989566803 0.3979927897453308
vt 0.07257861644029617 0.3979927897453308
vt 0.0981689989566803 0.4189148247241974
vt 0.07257861644029617 0.4189148247241974
vt 0.0981689989566803 0.4379920959472656
vt 0.07257861644029617 0.4379920959472656
vt 0.0981689989566803 0.4567330777645111
vt 0.07257861644029617 0.4567330777645111
vt 0.0981689989566803 0.4768760800361633
vt 0.07257861644029617 0.4768760800361633
vt 0.0981689989566803 0.4944292604923248
vt 0.07257861644029617 0.4944292604923248
vt 0.0981689989566803 0.5148348212242127
vt 0.07257861644029617 0.5148348212242127
vt 0.0981689989566803 0.5331693291664124
vt 0.07257861644029617 0.5331693291664124
vt 0.0981689989566803 0.5544360876083374
vt 0.07257861644029617 0.5544360876083374
vt 0.0981689989566803 0.5765542387962341
vt 0.07257861644029617 0.5765542387962341
vt 0.0981689989566803 0.5981555581092835
vt 0.07257861644029617 0.5981555581092835
vt 0.0981689989566803 0.6178973913192749
vt 0.07257861644029617 0.6178973913192749
vt 0.0981689989566803 0.6357582807540894
vt 0.07257861644029617 0.6357582807540894
vt 0.0981689989566803 0.6514813899993897
vt 0.07257861644029617 0.6514813899993897
vt 0.0981689989566803 0.6660955548286438
vt 0.07257861644029617 0.6660955548286438
vt 0.0981689989566803 0.6805399060249329
vt 0.07257861644029617 0.6805399060249329
vt 0.0981689989566803 0.6963866353034973
vt 0.07257861644029617 0.6963866353034973
vt 0.0981689989566803 0.7120097279548645
vt 0.07257861644029617 0.7120097279548645
vt 0.0981689989566803 0.7278957962989807
vt 0.07257861644029617 0.7278957962989807
vt 0.0981689989566803 0.7468926906585693
vt 0.07257861644029617 0.7468926906585693
vt 0.0981689989566803 0.7644459009170532
vt 0.07257861644029617 0.7644459009170532
vt 0.0981689989566803 0.7823271751403809
vt 0.07257861644029617 0.7823271751403809
vt 0.0981689989566803 0.8027856945991516
vt 0.07257861644029617 0.8027856945991516
vt 0.0981689989566803 0.8224298357963562
vt 0.07257861644029617 0.8224298357963562
vt 0.0981689989566803 0.842674732208252
vt 0.07257861644029617 0.842674732208252
vt 0.0981689989566803 0.8645408153533936
vt 0.07257861644029617 0.8645408153533936
vt 0.0981689989566803 0.8847338557243347
vt 0.07257861644029617 0.8847338557243347
vt 0.0981689989566803 0.9055386781692505
vt 0.07257861644029617 0.9055386781692505
vt 0.0981689989566803 0.9257434606552124
vt 0.07257861644029617 0.9257434606552124
vt 0.0981689989566803 0.9445121288299561
vt 0.07257861644029617 0.9445121288299561
vt 0.0981689989566803 0.9617065787315369
vt 0.07257861644029617 0.9617065787315369
vt 0.0981689989566803 0.9791934490203857
vt 0.07257861644029617 0.9791934490203857
vt 0.0981689989566803 0.99853515625
vt 0.07257861644029617 0.99853515625
vt 0.07257861644029617 0.2368810027837753
vt 0.0981689989566803 0.2368810027837753
vt 0.07257861644029617 0.2602649331092835
vt 0.0981689989566803 0.2602649331092835
vt 0.07257861644029617 0.3681430518627167
vt 0.0981689989566803 0.3681430518627167
vt 0.07257861644029617 0.3879196643829346
vt 0.0981689989566803 0.3879196643829346
vt 0.07257861644029617 0.7373942732810974
vt 0.0981689989566803 0.7373942732810974
vt 0.07257861644029617 0.8536077737808228
vt 0.0981689989566803 0.8536077737808228
vt 0.07257861644029617 0.895136296749115
vt 0.0981689989566803 0.895136296749115
vt 0.02666396647691727 0
vt 0 0
vt 0.02666396647691727 0.02334647439420223
vt 0 0.02334647439420223
vt 0.02666396647691727 0.04461036995053291
vt 0 0.04461036995053291
vt 0.02666396647691727 0.06751010566949844
vt 0 0.06751010566949844
vt 0.02666396647691727 0.09117244184017181
vt 0 0.09117244184017181
vt 0.02666396647691727 0.1131206676363945
vt 0 0.1131206676363945
vt 0.02666396647691727 0.1352504193782806
vt 0 0.1352504193782806
vt 0.02666396647691727 0.1587439030408859
vt 0 0.1587439030408859
vt 0.02666396647691727 0.1812086850404739
vt 0 0.1812086850404739
vt 0.02666396647691727 0.2039171010255814
vt 0 0.2039171010255814
vt 0.02666396647691727 0.2262864112854004
vt 0 0.2262864112854004
vt 0.02666396647691727 0.2503818273544312
vt 0 0.2503818273544312
vt 0.02666396647691727 0.2720044851303101
vt 0 0.2720044851303101
vt 0.02666396647691727 0.2941095530986786
vt 0 0.2941095530986786
vt 0.02666396647691727 0.3184027671813965
vt 0 0.3184027671813965
vt 0.02666396647691727 0.339468389749527
vt 0 0.339468389749527
vt 0.02666396647691727 0.3638267815113068
vt 0 0.3638267815113068
vt 0.02666396647691727 0.3854825496673584
vt 0 0.3854825496673584
vt 0.02666396647691727 0.4085568487644196
vt 0 0.4085568487644196
vt 0.02666396647691727 0.4308095276355743
vt 0 0.4308095276355743
vt 0.02666396647691727 0.4546954035758972
vt 0 0.4546954035758972
vt 0.02666396647691727 0.47623211145401
vt 0 0.47623211145401
vt 0.02666396647691727 0.4986898303031921
vt 0 0.4986898303031921
vt 0.02666396647691727 0.5215021967887878
vt 0 0.5215021967887878
vt 0.02666396647691727 0.544314444065094
vt 0 0.544314444065094
vt 0.02666396647691727 0.5668458342552185
vt 0 0.5668458342552185
vt 0.02666396647691727 0.5890638828277588
vt 0 0.5890638828277588
vt 0.02666396647691727 0.612294614315033
vt 0 0.612294614315033
vt 0.02666396647691727 0.6353766322135925
vt 0 0.6353766322135925
vt 0.02666396647691727 0.6580381989479065
vt 0 0.6580381989479065
vt 0.02666396647691727 0.6800462603569031
vt 0 0.6800462603569031
vt 0.02666396647691727 0.7037460207939148
vt 0 0.7037460207939148
vt 0.02666396647691727 0.7273117303848267
vt 0 0.7273117303848267
vt 0.02666396647691727 0.7491385936737061
vt 0 0.7491385936737061
vt 0.02666396647691727 0.7705821394920349
vt 0 0.7705821394920349
vt 0.02666396647691727 0.7953881621360779
vt 0 0.7953881621360779
vt 0.02666396647691727 0.8159642219543457
vt 0 0.8159642219543457
vt 0.02666396647691727 0.8399739861488342
vt 0 0.8399739861488342
vt 0.02666396647691727 0.8622032999992371
vt 0 0.8622032999992371
vt 0.02666396647691727 0.8845824003219605
vt 0 0.8845824003219605
vt 0.02666396647691727 0.9080278277397156
vt 0 0.9080278277397156
vt 0.02666396647691727 0.9296178817749023
vt 0 0.9296178817749023
vt 0.02666396647691727 0.9521629810333252
vt 0 0.9521629810333252
vt 0.02666396647691727 0.9760105013847351
vt 0 0.9760105013847351
vt 0.02666396647691727 0.99853515625
vt 0 0.99853515625
vt 0 0.2383341044187546
vt 0.02666396647691727 0.2383341044187546
vt 0 0.2611931562423706
vt 0.02666396647691727 0.2611931562423706
vt 0 0.3516475558280945
vt 0.02666396647691727 0.3516475558280945
vt 0 0.3746546804904938
vt 0.02666396647691727 0.3746546804904938
vt 0 0.3970196843147278
vt 0.02666396647691727 0.3970196843147278
vt 0 0.7382251620292664
vt 0.02666396647691727 0.7382251620292664
vt 0 0.7598603367805481
vt 0.02666396647691727 0.7598603367805481
vt 0 0.7829851508140564
vt 0.02666396647691727 0.7829851508140564
vt 0 0.8279690742492676
vt 0.02666396647691727 0.8279690742492676
vt 0 0.8510886430740356
vt 0.02666396647691727 0.8510886430740356
vt 0 0.8733928203582764
vt 0.02666396647691727 0.8733928203582764
vt 0 0.8963050842285156
vt 0.02666396647691727 0.8963050842285156
vn 0 -1 -0
vn 0 -1 -0
vn 0 -1 -0
vn 0 -1 -0
vn 0 -1 -0
vn 0 -1 -0
vn 0 -1 -0
vn 0 -1 -0
vn 0 -1 -0
vn 0 -1 -0
vn 0 -1 -0
vn 0 -1 -0
vn 0 -1 -0
vn 0 -1 -0
vn 0 -1 -0
vn 0 -1 -0
vn 0 -1 -0
vn 0 -1 -0
vn 0 -1 -0
vn 0 -1 -0
vn 0 -1 -0
vn 0 -1 -0
vn 0 -1 -0
vn 0 -1 -0
vn 0 -1 -0
vn 0 -1 -0
vn 0 -1 -0
vn 0 -1 -0
vn 0 -1 -0
vn 0 -1 -0
vn 0 -1 -0
vn 0 -1 -0
vn 0 -1 -0
vn 0 -1 -0
vn 0 -1 -0
vn 0 -1 -0
vn 0 -1 -0
vn 0 -1 -0
vn 0 -1 -0
vn 0 -1 -0
vn 0 -1 -0
vn 0 -1 -0
vn 0 -1 -0
vn 0 -1 -0
vn 0 -1 -0
vn 0 -1 -0
vn 0 -1 -0
vn 0 -1 -0
vn 0 -1 -0
vn 0 -1 -0
vn 0 -1 -0
vn 0 -1 -0
vn 0 -1 -0
vn 0 -1 -0
vn 0 -1 -0
vn 0 -1 -0
vn 0 -1 -0
vn 0 -1 -0
vn 0 -1 -0
vn 0 -1 -0
vn 0 -1 -0
vn 0 -1 -0
vn 0 -1 -0
vn 0 -1 -0
vn 0 -1 -0
vn 0 -1 -0
vn 0 -1 -0
vn 0 -1 -0
vn 0 -1 -0
vn 0 -1 -0
vn 0 -1 -0
vn 0 -1 -0
vn 0 -1 -0
vn 0 -1 -0
vn 0 -1 -0
vn 0 -1 -0
vn 0 -1 -0
vn 0 -1 -0
vn 0 -1 -0
vn 0 -1 -0
vn 0 -1 -0
vn 0 -1 -0
vn 0 -1 -0
vn 0 -1 -0
vn 0 -1 -0
vn 0 -1 -0
vn 0 -1 -0
vn 0 -1 -0
vn 0 -1 -0
vn 0 -1 -0
vn 0 -1 -0
vn 0 -1 -0
vn 0 -1 -0
vn 0 -1 -0
vn 0 -1 -0
vn 0 -1 -0
vn 0 -1 -0
vn 0 -1 -0
vn 0 -1 -0
vn 0 -1 -0
vn 0 -1 -0
vn 0 -1 -0
vn 0 -1 -0
vn 0 -1 -0
vn 0 -1 -0
vn 0 -1 -0
vn 0 -1 -0
vn 0 -1 -0
vn 0 -1 -0
vn 0 -1 -0
vn 0 -1 -0
vn 0 -1 -0
vn 0 -1 -0
vn 0 -1 -0
vn 0 -1 -0
vn 0 1 -0
vn 0 1 -0
vn 0 1 -0
vn 0 1 -0
vn 0 1 -0
vn 0 1 -0
vn 0 1 -0
vn 0 1 -0
vn 0 1 -0
vn 0 1 -0
vn 0 1 -0
vn 0 1 -0
vn 0 1 -0
vn 0 1 -0
vn 0 1 -0
vn 0 1 -0
vn 0 1 -0
vn 0 1 -0
vn 0 1 -0
vn 0 1 -0
vn 0 1 -0
vn 0 1 -0
vn 0 1 -0
vn 0 1 -0
vn 0 1 -0
vn 0 1 -0
vn 0 1 -0
vn 0 1 -0
vn 0 1 -0
vn 0 1 -0
vn 0 1 -0
vn 0 1 -0
vn 0 1 -0
vn 0 1 -0
vn 0 1 -0
vn 0 1 -0
vn 0 1 -0
vn 0 1 -0
vn 0 1 -0
vn 0 1 -0
vn 0 1 -0
vn 0 1 -0
vn 0 1 -0
vn 0 1 -0
vn 0 1 -0
vn 0 1 -0
vn 0 1 -0
vn 0 1 -0
vn 0 1 -0
vn 0 1 -0
vn 0 1 -0
vn 0 1 -0
vn 0 1 -0
vn 0 1 -0
vn 0 1 -0
vn 0 1 -0
vn 0 1 -0
vn 0 1 -0
vn 0 1 -0
vn 0 1 -0
vn 0 1 -0
vn 0 1 -0
vn 0 1 -0
vn 0 1 -0
vn 0 1 -0
vn 0 1 -0
vn 0 1 -0
vn 0 1 -0
vn 0 1 -0
vn 0 1 -0
vn 0 1 -0
vn 0 1 -0
vn 0 1 -0
vn 0 1 -0
vn 0 1 -0
vn 0 1 -0
vn 0 1 -0
vn 0 1 -0
vn 0 1 -0
vn 0 1 -0
vn 0 1 -0
vn 0 1 -0
vn 0 1 -0
vn 0 1 -0
vn 0 1 -0
vn 0 1 -0
vn 0 1 -0
vn 0 1 -0
vn 0 1 -0
vn 0 1 -0
vn 0 1 -0
vn 0 1 -0
vn 0 1 -0
vn 0 1 -0
vn 0 1 -0
vn 0 1 -0
vn 0 1 -0
vn 0 1 -0
vn 0 1 -0
vn 0 1 -0
vn 0 1 -0
vn 0 1 -0
vn 0 1 -0
vn 0 1 -0
vn 0 1 -0
vn 0 1 -0
vn 0 1 -0
vn 0 1 -0
vn 0 1 -0
vn 0 1 -0
vn 0 1 -0
vn 0 1 -0
vn 0 1 -0
vn 0 1 -0
vn 0 1 -0
vn 0.2931330502033234 0 -0.956071674823761
vn 0.2931330502033234 0 -0.956071674823761
vn 0.2620529532432556 0 -0.9650534987449646
vn 0.2620529532432556 0 -0.9650534987449646
vn 0.1764943301677704 0 -0.9843016266822815
vn 0.1764943301677704 0 -0.9843016266822815
vn 0.02403779700398445 0 -0.9997110366821289
vn 0.02403779700398445 0 -0.9997110366821289
vn -0.1524042189121246 0 -0.9883182644844055
vn -0.1524042189121246 0 -0.9883182644844055
vn -0.2614952623844147 0 -0.9652047753334045
vn -0.2614952623844147 0 -0.9652047753334045
vn -0.3203815817832947 0 -0.9472885727882385
vn -0.3203815817832947 0 -0.9472885727882385
vn -0.3441861569881439 0 -0.938901424407959
vn -0.3441861569881439 0 -0.938901424407959
vn -0.346388041973114 0 -0.9380913376808167
vn -0.346388041973114 0 -0.9380913376808167
vn -0.3246762454509735 0 -0.9458252191543579
vn -0.3246762454509735 0 -0.9458252191543579
vn -0.2462049126625061 0 -0.9692177772521973
vn -0.2462049126625061 0 -0.9692177772521973
vn -0.0701400637626648 0 -0.9975371360778809
vn -0.0701400637626648 0 -0.9975371360778809
vn 0.276622086763382 0 -0.9609788060188294
vn 0.276622086763382 0 -0.9609788060188294
vn 0.6913239359855652 0 -0.7225449681282044
vn 0.6913239359855652 0 -0.7225449681282044
vn 0.8660888075828552 0 -0.4998901784420013
vn 0.8660888075828552 0 -0.4998901784420013
vn 0.9439792633056641 0 -0.3300047218799591
vn 0.9439792633056641 0 -0.3300047218799591
vn 0.9816503524780273 0 -0.1906899064779282
vn 0.9816503524780273 0 -0.1906899064779282
vn 0.9996368288993835 0 -0.02694772556424141
vn 0.9996368288993835 0 -0.02694772556424141
vn 0.9792157411575317 0 0.202821284532547
vn 0.9792157411575317 0 0.202821284532547
vn 0.8562483787536621 0 0.5165643692016602
vn 0.8562483787536621 0 0.5165643692016602
vn 0.6373713612556458 0 0.7705567479133606
vn 0.6373713612556458 0 0.7705567479133606
vn 0.3873263895511627 0 0.9219426512718201
vn 0.3873263895511627 0 0.9219426512718201
vn 0.1756456196308136 0 0.9844534397125244
vn 0.1756456196308136 0 0.9844534397125244
vn -0.01495560817420483 -0 0.9998881816864014
vn -0.01495560817420483 -0 0.9998881816864014
vn -0.1676288098096848 -0 0.9858501553535461
vn -0.1676288098096848 -0 0.9858501553535461
vn -0.2430922985076904 -0 0.9700031876564026
vn -0.2430922985076904 -0 0.9700031876564026
vn -0.2715222537517548 -0 0.9624321460723877
vn -0.2715222537517548 -0 0.9624321460723877
vn -0.2420995384454727 -0 0.9702514410018921
vn -0.2420995384454727 -0 0.9702514410018921
vn -0.1342310607433319 -0 0.9909500479698181
vn -0.1342310607433319 -0 0.9909500479698181
vn 0.002073627663776279 0 0.9999978542327881
vn 0.002073627663776279 0 0.9999978542327881
vn 0.1155673861503601 0 0.993299663066864
vn 0.1155673861503601 0 0.993299663066864
vn 0.184923067688942 0 0.9827529788017273
vn 0.184923067688942 0 0.9827529788017273
vn 0.2192570567131043 0 0.9756671190261841
vn 0.2192570567131043 0 0.9756671190261841
vn 0.2210156619548798 0 0.9752702713012695
vn 0.2210156619548798 0 0.9752702713012695
vn 0.194776251912117 0 0.9808477163314819
vn 0.194776251912117 0 0.9808477163314819
vn 0.1420552134513855 0 0.9898587465286255
vn 0.1420552134513855 0 0.9898587465286255
vn 0.04569753259420395 0 0.9989553093910217
vn 0.04569753259420395 0 0.9989553093910217
vn -0.1043399721384049 -0 0.9945417046546936
vn -0.1043399721384049 -0 0.9945417046546936
vn -0.3302159011363983 -0 0.9439054131507874
vn -0.3302159011363983 -0 0.9439054131507874
vn -0.6026082038879395 -0 0.7980371713638306
vn -0.6026082038879395 -0 0.7980371713638306
vn -0.7860015034675598 -0 0.618224561214447
vn -0.7860015034675598 -0 0.618224561214447
vn -0.9090569615364075 -0 0.4166718125343323
vn -0.9090569615364075 -0 0.4166718125343323
vn -0.9856439828872681 -0 0.1688368767499924
vn -0.9856439828872681 -0 0.1688368767499924
vn -0.9952282905578613 0 -0.09757361561059952
vn -0.9952282905578613 0 -0.09757361561059952
vn -0.9283548593521118 0 -0.3716951608657837
vn -0.9283548593521118 0 -0.3716951608657837
vn -0.7721312046051025 0 -0.6354631781578064
vn -0.7721312046051025 0 -0.6354631781578064
vn -0.5540983080863953 0 -0.8324512839317322
vn -0.5540983080863953 0 -0.8324512839317322
vn -0.2658376395702362 0 -0.9640178084373474
vn -0.2658376395702362 0 -0.9640178084373474
vn -0.003144341986626387 0 -0.9999950528144836
vn -0.003144341986626387 0 -0.9999950528144836
vn 0.1508556753396988 0 -0.9885557889938355
vn 0.1508556753396988 0 -0.9885557889938355
vn 0.2357012182474136 0 -0.9718255996704102
vn 0.2357012182474136 0 -0.9718255996704102
vn 0.282169371843338 0 -0.9593645930290222
vn 0.282169371843338 0 -0.9593645930290222
vn 0.2931330502033234 0 -0.956071674823761
vn 0.2931330502033234 0 -0.956071674823761
vn 0.08416582643985748 2.425911625359177e-16 -0.996451735496521
vn 0.08416582643985748 2.425911625359177e-16 -0.996451735496521
vn 0.4977066516876221 -1.426144476382839e-16 -0.8673454523086548
vn 0.4977066516876221 -1.426144476382839e-16 -0.8673454523086548
vn 0.9321401715278626 3.166679657168995e-17 0.3620975911617279
vn 0.9321401715278626 3.166679657168995e-17 0.3620975911617279
vn 0.7539225816726685 -3.802121127221211e-17 0.6569632887840271
vn 0.7539225816726685 -3.802121127221211e-17 0.6569632887840271
vn -0.4750849902629852 -1.642394237748128e-16 0.8799399137496948
vn -0.4750849902629852 -1.642394237748128e-16 0.8799399137496948
vn -0.8608589768409729 3.728221605389111e-16 -0.5088436007499695
vn -0.8608589768409729 3.728221605389111e-16 -0.5088436007499695
vn -0.416620671749115 -2.047348778429588e-16 -0.909080445766449
vn -0.416620671749115 -2.047348778429588e-16 -0.909080445766449
vn -0.2931330502033234 -0 0.956071674823761
vn -0.2931330502033234 -0 0.956071674823761
vn -0.2506770789623261 -0 0.9680707454681397
vn -0.2506770789623261 -0 0.9680707454681397
vn -0.1480309814214706 -0 0.9889827370643616
vn -0.1480309814214706 -0 0.9889827370643616
vn 0.02801684662699699 -0 0.9996074438095093
vn 0.02801684662699699 -0 0.9996074438095093
vn 0.2040070593357086 -0 0.9789693951606751
vn 0.2040070593357086 -0 0.9789693951606751
vn 0.2935487926006317 -0 0.9559441208839417
vn 0.2935487926006317 -0 0.9559441208839417
vn 0.3363339900970459 -0 0.9417427778244019
vn 0.3363339900970459 -0 0.9417427778244019
vn 0.3482436835765839 -0 0.9374040365219116
vn 0.3482436835765839 -0 0.9374040365219116
vn 0.3299100697040558 -0 0.9440123438835144
vn 0.3299100697040558 -0 0.9440123438835144
vn 0.2472323775291443 -0 0.9689562320709229
vn 0.2472323775291443 -0 0.9689562320709229
vn 0.00402526929974556 -0 0.9999918937683106
vn 0.00402526929974556 -0 0.9999918937683106
vn -0.5585063695907593 -0 0.8295002579689026
vn -0.5585063695907593 -0 0.8295002579689026
vn -0.8491343855857849 -0 0.5281768441200256
vn -0.8491343855857849 -0 0.5281768441200256
vn -0.9432196617126465 -0 0.3321696817874908
vn -0.9432196617126465 -0 0.3321696817874908
vn -0.9897810816764832 -0 0.142595112323761
vn -0.9897810816764832 -0 0.142595112323761
vn -0.9980955123901367 -0 -0.06168744713068008
vn -0.9980955123901367 -0 -0.06168744713068008
vn -0.8947184085845947 -0 -0.4466307163238525
vn -0.8947184085845947 -0 -0.4466307163238525
vn -0.633906900882721 -0 -0.773409366607666
vn -0.633906900882721 -0 -0.773409366607666
vn -0.329804003238678 -0 -0.9440494179725647
vn -0.329804003238678 -0 -0.9440494179725647
vn -0.08014007657766342 -0 -0.9967836141586304
vn -0.08014007657766342 -0 -0.9967836141586304
vn 0.1323875784873962 0 -0.9911980032920837
vn 0.1323875784873962 0 -0.9911980032920837
vn 0.2347171753644943 0 -0.9720637202262878
vn 0.2347171753644943 0 -0.9720637202262878
vn 0.2722720801830292 0 -0.962220311164856
vn 0.2722720801830292 0 -0.962220311164856
vn 0.2337492555379868 0 -0.9722968935966492
vn 0.2337492555379868 0 -0.9722968935966492
vn 0.1060881093144417 0 -0.9943567514419556
vn 0.1060881093144417 0 -0.9943567514419556
vn -0.03936022892594338 -0 -0.9992250800132752
vn -0.03936022892594338 -0 -0.9992250800132752
vn -0.1464109569787979 -0 -0.989223837852478
vn -0.1464109569787979 -0 -0.989223837852478
vn -0.2069374173879623 -0 -0.9783541560173035
vn -0.2069374173879623 -0 -0.9783541560173035
vn -0.2239027321338654 -0 -0.9746115207672119
vn -0.2239027321338654 -0 -0.9746115207672119
vn -0.2020789086818695 -0 -0.9793692231178284
vn -0.2020789086818695 -0 -0.9793692231178284
vn -0.1471460312604904 -0 -0.9891147613525391
vn -0.1471460312604904 -0 -0.9891147613525391
vn -0.03735696896910667 -0 -0.9993019700050354
vn -0.03735696896910667 -0 -0.9993019700050354
vn 0.1691015064716339 0 -0.985598623752594
vn 0.1691015064716339 0 -0.985598623752594
vn 0.4850808084011078 0 -0.8744693398475647
vn 0.4850808084011078 0 -0.8744693398475647
vn 0.7431209087371826 0 -0.6691571474075317
vn 0.7431209087371826 0 -0.6691571474075317
vn 0.9224013686180115 0 -0.3862327635288239
vn 0.9224013686180115 0 -0.3862327635288239
vn 0.992643415927887 0 -0.1210745573043823
vn 0.992643415927887 0 -0.1210745573043823
vn 0.9698705077171326 -0 0.2436210513114929
vn 0.9698705077171326 -0 0.2436210513114929
vn 0.8202673196792603 -0 0.5719802975654602
vn 0.8202673196792603 -0 0.5719802975654602
vn 0.5428513288497925 -0 0.8398287892341614
vn 0.5428513288497925 -0 0.8398287892341614
vn 0.1584047973155975 -0 0.9873742461204529
vn 0.1584047973155975 -0 0.9873742461204529
vn -0.0833476334810257 -0 0.9965205192565918
vn -0.0833476334810257 -0 0.9965205192565918
vn -0.2127928882837296 -0 0.9770973324775696
vn -0.2127928882837296 -0 0.9770973324775696
vn -0.2796850204467773 -0 0.9600918292999268
vn -0.2796850204467773 -0 0.9600918292999268
vn -0.2931330502033234 -0 0.956071674823761
vn -0.2931330502033234 -0 0.956071674823761
vn -0.2542072832584381 2.611888627712944e-17 0.9671497344970703
vn -0.2542072832584381 2.611888627712944e-17 0.9671497344970703
vn -0.7520186305046082 -2.266923011763953e-16 0.6591418385505676
vn -0.7520186305046082 -2.266923011763953e-16 0.6591418385505676
vn -0.9730967879295349 -6.535112768555511e-16 -0.2303967177867889
vn -0.9730967879295349 -6.535112768555511e-16 -0.2303967177867889
vn -0.7776922583580017 1.11829392512351e-16 -0.6286451816558838
vn -0.7776922583580017 1.11829392512351e-16 -0.6286451816558838
vn -0.4766954481601715 1.669679963815684e-19 -0.8790684938430786
vn -0.4766954481601715 1.669679963815684e-19 -0.8790684938430786
vn 0.3206095397472382 7.627791093865071e-17 -0.9472114443778992
vn 0.3206095397472382 7.627791093865071e-17 -0.9472114443778992
vn 0.6263520121574402 -2.675738864632035e-17 -0.7795403599739075
vn 0.6263520121574402 -2.675738864632035e-17 -0.7795403599739075
vn 0.8477360606193543 9.491804884817387e-17 -0.5304182767868042
vn 0.8477360606193543 9.491804884817387e-17 -0.5304182767868042
vn 0.9985028505325317 -2.121419427386813e-16 0.05469996482133865
vn 0.9985028505325317 -2.121419427386813e-16 0.05469996482133865
vn 0.9105901718139648 -3.554243420303242e-16 0.4133104085922241
vn 0.9105901718139648 -3.554243420303242e-16 0.4133104085922241
vn 0.6967455744743347 1.023266886957826e-16 0.7173183560371399
vn 0.6967455744743347 1.023266886957826e-16 0.7173183560371399
vn 0.3551928997039795 -6.049477545554691e-17 0.9347930550575256
vn 0.3551928997039795 -6.049477545554691e-17 0.9347930550575256
f 1/1/1 2/2/2 60/60/60
f 2/2/2 3/3/3 115/115/115
f 3/3/3 4/4/4 114/114/114
f 4/4/4 5/5/5 113/113/113
f 5/5/5 6/6/6 112/112/112
f 6/6/6 7/7/7 111/111/111
f 7/7/7 8/8/8 110/110/110
f 8/8/8 9/9/9 109/109/109
f 9/9/9 10/10/10 108/108/108
f 10/10/10 11/11/11 107/107/107
f 11/11/11 12/12/12 107/107/107
f 12/12/12 13/13/13 106/106/106
f 13/13/13 14/14/14 105/105/105
f 14/14/14 15/15/15 105/105/105
f 15/15/15 16/16/16 104/104/104
f 16/16/16 17/17/17 103/103/103
f 17/17/17 18/18/18 101/101/101
f 18/18/18 19/19/19 101/101/101
f 19/19/19 20/20/20 100/100/100
f 20/20/20 21/21/21 99/99/99
f 21/21/21 22/22/22 98/98/98
f 22/22/22 23/23/23 97/97/97
f 23/23/23 24/24/24 96/96/96
f 24/24/24 25/25/25 95/95/95
f 25/25/25 26/26/26 94/94/94
f 26/26/26 27/27/27 93/93/93
f 27/27/27 28/28/28 92/92/92
f 28/28/28 29/29/29 91/91/91
f 29/29/29 30/30/30 90/90/90
f 30/30/30 31/31/31 89/89/89
f 31/31/31 32/32/32 89/89/89
f 32/32/32 33/33/33 88/88/88
f 33/33/33 34/34/34 87/87/87
f 34/34/34 35/35/35 86/86/86
f 35/35/35 36/36/36 85/85/85
f 36/36/36 37/37/37 84/84/84
f 37/37/37 38/38/38 83/83/83
f 38/38/38 39/39/39 82/82/82
f 39/39/39 40/40/40 81/81/81
f 40/40/40 41/41/41 80/80/80
f 41/41/41 42/42/42 80/80/80
f 42/42/42 43/43/43 79/79/79
f 43/43/43 44/44/44 78/78/78
f 44/44/44 45/45/45 77/77/77
f 45/45/45 46/46/46 75/75/75
f 46/46/46 47/47/47 74/74/74
f 47/47/47 48/48/48 73/73/73
f 48/48/48 49/49/49 72/72/72
f 49/49/49 50/50/50 70/70/70
f 50/50/50 51/51/51 69/69/69
f 51/51/51 52/52/52 68/68/68
f 52/52/52 53/53/53 67/67/67
f 53/53/53 54/54/54 66/66/66
f 54/54/54 55/55/55 65/65/65
f 55/55/55 56/56/56 63/63/63
f 56/56/56 57/57/57 63/63/63
f 57/57/57 58/58/58 63/63/63
f 58/58/58 59/59/59 61/61/61
f 59/59/59 1/1/1 60/60/60
f 60/60/60 61/61/61 59/59/59
f 61/61/61 62/62/62 58/58/58
f 62/62/62 63/63/63 58/58/58
f 63/63/63 64/64/64 55/55/55
f 64/64/64 65/65/65 55/55/55
f 65/65/65 66/66/66 54/54/54
f 66/66/66 67/67/67 53/53/53
f 67/67/67 68/68/68 52/52/52
f 68/68/68 69/69/69 51/51/51
f 69/69/69 70/70/70 50/50/50
f 70/70/70 71/71/71 49/49/49
f 71/71/71 72/72/72 49/49/49
f 72/72/72 73/73/73 48/48/48
f 73/73/73 74/74/74 47/47/47
f 74/74/74 75/75/75 46/46/46
f 75/75/75 76/76/76 45/45/45
f 76/76/76 77/77/77 45/45/45
f 77/77/77 78/78/78 44/44/44
f 78/78/78 79/79/79 43/43/43
f 79/79/79 80/80/80 42/42/42
f 80/80/80 81/81/81 40/40/40
f 81/81/81 82/82/82 39/39/39
f 82/82/82 83/83/83 38/38/38
f 83/83/83 84/84/84 37/37/37
f 84/84/84 85/85/85 36/36/36
f 85/85/85 86/86/86 35/35/35
f 86/86/86 87/87/87 34/34/34
f 87/87/87 88/88/88 33/33/33
f 88/88/88 89/89/89 32/32/32
f 89/89/89 90/90/90 30/30/30
f 90/90/90 91/91/91 29/29/29
f 91/91/91 92/92/92 28/28/28
f 92/92/92 93/93/93 27/27/27
f 93/93/93 94/94/94 26/26/26
f 94/94/94 95/95/95 25/25/25
f 95/95/95 96/96/96 24/24/24
f 96/96/96 97/97/97 23/23/23
f 97/97/97 98/98/98 22/22/22
f 98/98/98 99/99/99 21/21/21
f 99/99/99 100/100/100 20/20/20
f 100/100/100 101/101/101 19/19/19
f 101/101/101 102/102/102 17/17/17
f 102/102/102 103/103/103 17/17/17
f 103/103/103 104/104/104 16/16/16
f 104/104/104 105/105/105 15/15/15
f 105/105/105 106/106/106 13/13/13
f 106/106/106 107/107/107 12/12/12
f 107/107/107 108/108/108 10/10/10
f 108/108/108 109/109/109 9/9/9
f 109/109/109 110/110/110 8/8/8
f 110/110/110 111/111/111 7/7/7
f 111/111/111 112/112/112 6/6/6
f 112/112/112 113/113/113 5/5/5
f 113/113/113 114/114/114 4/4/4
f 114/114/114 115/115/115 3/3/3
f 115/115/115 60/60/60 2/2/2
f 116/116/116 117/117/117 175/175/175
f 117/117/117 118/118/118 230/230/230
f 118/118/118 119/119/119 228/228/228
f 119/119/119 120/120/120 228/228/228
f 120/120/120 121/121/121 228/228/228
f 121/121/121 122/122/122 226/226/226
f 122/122/122 123/123/123 225/225/225
f 123/123/123 124/124/124 224/224/224
f 124/124/124 125/125/125 223/223/223
f 125/125/125 126/126/126 222/222/222
f 126/126/126 127/127/127 221/221/221
f 127/127/127 128/128/128 219/219/219
f 128/128/128 129/129/129 218/218/218
f 129/129/129 130/130/130 217/217/217
f 130/130/130 131/131/131 216/216/216
f 131/131/131 132/132/132 214/214/214
f 132/132/132 133/133/133 213/213/213
f 133/133/133 134/134/134 212/212/212
f 134/134/134 135/135/135 211/211/211
f 135/135/135 136/136/136 211/211/211
f 136/136/136 137/137/137 210/210/210
f 137/137/137 138/138/138 209/209/209
f 138/138/138 139/139/139 208/208/208
f 139/139/139 140/140/140 207/207/207
f 140/140/140 141/141/141 206/206/206
f 141/141/141 142/142/142 205/205/205
f 142/142/142 143/143/143 204/204/204
f 143/143/143 144/144/144 203/203/203
f 144/144/144 145/145/145 202/202/202
f 145/145/145 146/146/146 202/202/202
f 146/146/146 147/147/147 201/201/201
f 147/147/147 148/148/148 200/200/200
f 148/148/148 149/149/149 199/199/199
f 149/149/149 150/150/150 198/198/198
f 150/150/150 151/151/151 197/197/197
f 151/151/151 152/152/152 196/196/196
f 152/152/152 153/153/153 195/195/195
f 153/153/153 154/154/154 194/194/194
f 154/154/154 155/155/155 193/193/193
f 155/155/155 156/156/156 192/192/192
f 156/156/156 157/157/157 191/191/191
f 157/157/157 158/158/158 190/190/190
f 158/158/158 159/159/159 190/190/190
f 159/159/159 160/160/160 188/188/188
f 160/160/160 161/161/161 187/187/187
f 161/161/161 162/162/162 186/186/186
f 162/162/162 163/163/163 186/186/186
f 163/163/163 164/164/164 185/185/185
f 164/164/164 165/165/165 184/184/184
f 165/165/165 166/166/166 184/184/184
f 166/166/166 167/167/167 183/183/183
f 167/167/167 168/168/168 182/182/182
f 168/168/168 169/169/169 181/181/181
f 169/169/169 170/170/170 180/180/180
f 170/170/170 171/171/171 179/179/179
f 171/171/171 172/172/172 178/178/178
f 172/172/172 173/173/173 177/177/177
f 173/173/173 174/174/174 176/176/176
f 174/174/174 116/116/116 175/175/175
f 175/175/175 176/176/176 174/174/174
f 176/176/176 177/177/177 173/173/173
f 177/177/177 178/178/178 172/172/172
f 178/178/178 179/179/179 171/171/171
f 179/179/179 180/180/180 170/170/170
f 180/180/180 181/181/181 169/169/169
f 181/181/181 182/182/182 168/168/168
f 182/182/182 183/183/183 167/167/167
f 183/183/183 184/184/184 166/166/166
f 184/184/184 185/185/185 164/164/164
f 185/185/185 186/186/186 163/163/163
f 186/186/186 187/187/187 161/161/161
f 187/187/187 188/188/188 160/160/160
f 188/188/188 189/189/189 159/159/159
f 189/189/189 190/190/190 159/159/159
f 190/190/190 191/191/191 157/157/157
f 191/191/191 192/192/192 156/156/156
f 192/192/192 193/193/193 155/155/155
f 193/193/193 194/194/194 154/154/154
f 194/194/194 195/195/195 153/153/153
f 195/195/195 196/196/196 152/152/152
f 196/196/196 197/197/197 151/151/151
f 197/197/197 198/198/198 150/150/150
f 198/198/198 199/199/199 149/149/149
f 199/199/199 200/200/200 148/148/148
f 200/200/200 201/201/201 147/147/147
f 201/201/201 202/202/202 146/146/146
f 202/202/202 203/203/203 144/144/144
f 203/203/203 204/204/204 143/143/143
f 204/204/204 205/205/205 142/142/142
f 205/205/205 206/206/206 141/141/141
f 206/206/206 207/207/207 140/140/140
f 207/207/207 208/208/208 139/139/139
f 208/208/208 209/209/209 138/138/138
f 209/209/209 210/210/210 137/137/137
f 210/210/210 211/211/211 136/136/136
f 211/211/211 212/212/212 134/134/134
f 212/212/212 213/213/213 133/133/133
f 213/213/213 214/214/214 132/132/132
f 214/214/214 215/215/215 131/131/131
f 215/215/215 216/216/216 131/131/131
f 216/216/216 217/217/217 130/130/130
f 217/217/217 218/218/218 129/129/129
f 218/218/218 219/219/219 128/128/128
f 219/219/219 220/220/220 127/127/127
f 220/220/220 221/221/221 127/127/127
f 221/221/221 222/222/222 126/126/126
f 222/222/222 223/223/223 125/125/125
f 223/223/223 224/224/224 124/124/124
f 224/224/224 225/225/225 123/123/123
f 225/225/225 226/226/226 122/122/122
f 226/226/226 227/227/227 121/121/121
f 227/227/227 228/228/228 121/121/121
f 228/228/228 229/229/229 118/118/118
f 229/229/229 230/230/230 118/118/118
f 230/230/230 175/175/175 117/117/117
f 336/336/336 334/334/334 333/333/333
f 334/334/334 332/332/332 331/331/331
f 332/332/332 330/330/330 329/329/329
f 330/330/330 328/328/328 327/327/327
f 328/328/328 326/326/326 325/325/325
f 326/326/326 349/349/349 350/350/350
f 349/349/349 324/324/324 323/323/323
f 324/324/324 322/322/322 321/321/321
f 322/322/322 347/347/347 348/348/348
f 347/347/347 320/320/320 319/319/319
f 320/320/320 318/318/318 317/317/317
f 318/318/318 316/316/316 315/315/315
f 316/316/316 314/314/314 313/313/313
f 314/314/314 312/312/312 311/311/311
f 312/312/312 310/310/310 309/309/309
f 310/310/310 345/345/345 346/346/346
f 345/345/345 308/308/308 307/307/307
f 308/308/308 306/306/306 305/305/305
f 306/306/306 304/304/304 303/303/303
f 304/304/304 302/302/302 301/301/301
f 302/302/302 300/300/300 299/299/299
f 300/300/300 298/298/298 297/297/297
f 298/298/298 296/296/296 295/295/295
f 296/296/296 294/294/294 293/293/293
f 294/294/294 292/292/292 291/291/291
f 292/292/292 290/290/290 289/289/289
f 290/290/290 288/288/288 287/287/287
f 288/288/288 286/286/286 285/285/285
f 286/286/286 284/284/284 283/283/283
f 284/284/284 282/282/282 281/281/281
f 282/282/282 280/280/280 279/279/279
f 280/280/280 278/278/278 277/277/277
f 278/278/278 276/276/276 275/275/275
f 276/276/276 274/274/274 273/273/273
f 274/274/274 272/272/272 271/271/271
f 272/272/272 343/343/343 344/344/344
f 343/343/343 270/270/270 269/269/269
f 270/270/270 341/341/341 342/342/342
f 341/341/341 268/268/268 267/267/267
f 268/268/268 266/266/266 265/265/265
f 266/266/266 264/264/264 263/263/263
f 264/264/264 262/262/262 261/261/261
f 262/262/262 260/260/260 259/259/259
f 260/260/260 258/258/258 257/257/257
f 258/258/258 339/339/339 340/340/340
f 339/339/339 256/256/256 255/255/255
f 256/256/256 337/337/337 338/338/338
f 337/337/337 254/254/254 253/253/253
f 254/254/254 252/252/252 251/251/251
f 252/252/252 250/250/250 249/249/249
f 250/250/250 248/248/248 247/247/247
f 248/248/248 246/246/246 245/245/245
f 246/246/246 244/244/244 243/243/243
f 244/244/244 242/242/242 241/241/241
f 242/242/242 240/240/240 239/239/239
f 240/240/240 238/238/238 237/237/237
f 238/238/238 236/236/236 235/235/235
f 236/236/236 234/234/234 233/233/233
f 234/234/234 232/232/232 231/231/231
f 231/231/231 233/233/233 234/234/234
f 233/233/233 235/235/235 236/236/236
f 235/235/235 237/237/237 238/238/238
f 237/237/237 239/239/239 240/240/240
f 239/239/239 241/241/241 242/242/242
f 241/241/241 243/243/243 244/244/244
f 243/243/243 245/245/245 246/246/246
f 245/245/245 247/247/247 248/248/248
f 247/247/247 249/249/249 250/250/250
f 249/249/249 251/251/251 252/252/252
f 251/251/251 253/253/253 254/254/254
f 253/253/253 338/338/338 337/337/337
f 338/338/338 255/255/255 256/256/256
f 255/255/255 340/340/340 339/339/339
f 340/340/340 257/257/257 258/258/258
f 257/257/257 259/259/259 260/260/260
f 259/259/259 261/261/261 262/262/262
f 261/261/261 263/263/263 264/264/264
f 263/263/263 265/265/265 266/266/266
f 265/265/265 267/267/267 268/268/268
f 267/267/267 342/342/342 341/341/341
f 342/342/342 269/269/269 270/270/270
f 269/269/269 344/344/344 343/343/343
f 344/344/344 271/271/271 272/272/272
f 271/271/271 273/273/273 274/274/274
f 273/273/273 275/275/275 276/276/276
f 275/275/275 277/277/277 278/278/278
f 277/277/277 279/279/279 280/280/280
f 279/279/279 281/281/281 282/282/282
f 281/281/281 283/283/283 284/284/284
f 283/283/283 285/285/285 286/286/286
f 285/285/285 287/287/287 288/288/288
f 287/287/287 289/289/289 290/290/290
f 289/289/289 291/291/291 292/292/292
f 291/291/291 293/293/293 294/294/294
f 293/293/293 295/295/295 296/296/296
f 295/295/295 297/297/297 298/298/298
f 297/297/297 299/299/299 300/300/300
f 299/299/299 301/301/301 302/302/302
f 301/301/301 303/303/303 304/304/304
f 303/303/303 305/305/305 306/306/306
f 305/305/305 307/307/307 308/308/308
f 307/307/307 346/346/346 345/345/345
f 346/346/346 309/309/309 310/310/310
f 309/309/309 311/311/311 312/312/312
f 311/311/311 313/313/313 314/314/314
f 313/313/313 315/315/315 316/316/316
f 315/315/315 317/317/317 318/318/318
f 317/317/317 319/319/319 320/320/320
f 319/319/319 348/348/348 347/347/347
f 348/348/348 321/321/321 322/322/322
f 321/321/321 323/323/323 324/324/324
f 323/323/323 350/350/350 349/349/349
f 350/350/350 325/325/325 326/326/326
f 325/325/325 327/327/327 328/328/328
f 327/327/327 329/329/329 330/330/330
f 329/329/329 331/331/331 332/332/332
f 331/331/331 333/333/333 334/334/334
f 333/333/333 335/335/335 336/336/336
f 440/440/440 437/437/437 438/438/438
f 438/438/438 435/435/435 436/436/436
f 436/436/436 433/433/433 434/434/434
f 434/434/434 431/431/431 432/432/432
f 432/432/432 464/464/464 463/463/463
f 463/463/463 429/429/429 430/430/430
f 430/430/430 462/462/462 461/461/461
f 461/461/461 427/427/427 428/428/428
f 428/428/428 460/460/460 459/459/459
f 459/459/459 425/425/425 426/426/426
f 426/426/426 458/458/458 457/457/457
f 457/457/457 423/423/423 424/424/424
f 424/424/424 421/421/421 422/422/422
f 422/422/422 456/456/456 455/455/455
f 455/455/455 419/419/419 420/420/420
f 420/420/420 454/454/454 453/453/453
f 453/453/453 417/417/417 418/418/418
f 418/418/418 452/452/452 451/451/451
f 451/451/451 415/415/415 416/416/416
f 416/416/416 413/413/413 414/414/414
f 414/414/414 411/411/411 412/412/412
f 412/412/412 409/409/409 410/410/410
f 410/410/410 407/407/407 408/408/408
f 408/408/408 405/405/405 406/406/406
f 406/406/406 403/403/403 404/404/404
f 404/404/404 401/401/401 402/402/402
f 402/402/402 399/399/399 400/400/400
f 400/400/400 397/397/397 398/398/398
f 398/398/398 395/395/395 396/396/396
f 396/396/396 393/393/393 394/394/394
f 394/394/394 391/391/391 392/392/392
f 392/392/392 389/389/389 390/390/390
f 390/390/390 387/387/387 388/388/388
f 388/388/388 450/450/450 449/449/449
f 449/449/449 385/385/385 386/386/386
f 386/386/386 448/448/448 447/447/447
f 447/447/447 383/383/383 384/384/384
f 384/384/384 446/446/446 445/445/445
f 445/445/445 381/381/381 382/382/382
f 382/382/382 379/379/379 380/380/380
f 380/380/380 377/377/377 378/378/378
f 378/378/378 375/375/375 376/376/376
f 376/376/376 444/444/444 443/443/443
f 443/443/443 373/373/373 374/374/374
f 374/374/374 442/442/442 441/441/441
f 441/441/441 371/371/371 372/372/372
f 372/372/372 369/369/369 370/370/370
f 370/370/370 367/367/367 368/368/368
f 368/368/368 365/365/365 366/366/366
f 366/366/366 363/363/363 364/364/364
f 364/364/364 361/361/361 362/362/362
f 362/362/362 359/359/359 360/360/360
f 360/360/360 357/357/357 358/358/358
f 358/358/358 355/355/355 356/356/356
f 356/356/356 353/353/353 354/354/354
f 354/354/354 351/351/351 352/352/352
f 351/351/351 354/354/354 353/353/353
f 353/353/353 356/356/356 355/355/355
f 355/355/355 358/358/358 357/357/357
f 357/357/357 360/360/360 359/359/359
f 359/359/359 362/362/362 361/361/361
f 361/361/361 364/364/364 363/363/363
f 363/363/363 366/366/366 365/365/365
f 365/365/365 368/368/368 367/367/367
f 367/367/367 370/370/370 369/369/369
f 369/369/369 372/372/372 371/371/371
f 371/371/371 441/441/441 442/442/442
f 442/442/442 374/374/374 373/373/373
f 373/373/373 443/443/443 444/444/444
f 444/444/444 376/376/376 375/375/375
f 375/375/375 378/378/378 377/377/377
f 377/377/377 380/380/380 379/379/379
f 379/379/379 382/382/382 381/381/381
f 381/381/381 445/445/445 446/446/446
f 446/446/446 384/384/384 383/383/383
f 383/383/383 447/447/447 448/448/448
f 448/448/448 386/386/386 385/385/385
f 385/385/385 449/449/449 450/450/450
f 450/450/450 388/388/388 387/387/387
f 387/387/387 390/390/390 389/389/389
f 389/389/389 392/392/392 391/391/391
f 391/391/391 394/394/394 393/393/393
f 393/393/393 396/396/396 395/395/395
f 395/395/395 398/398/398 397/397/397
f 397/397/397 400/400/400 399/399/399
f 399/399/399 402/402/402 401/401/401
f 401/401/401 404/404/404 403/403/403
f 403/403/403 406/406/406 405/405/405
f 405/405/405 408/408/408 407/407/407
f 407/407/407 410/410/410 409/409/409
f 409/409/409 412/412/412 411/411/411
f 411/411/411 414/414/414 413/413/413
f 413/413/413 416/416/416 415/415/415
f 415/415/415 451/451/451 452/452/452
f 452/452/452 418/418/418 417/417/417
f 417/417/417 453/453/453 454/454/454
f 454/454/454 420/420/420 419/419/419
f 419/419/419 455/455/455 456/456/456
f 456/456/456 422/422/422 421/421/421
f 421/421/421 424/424/424 423/423/423
f 423/423/423 457/457/457 458/458/458
f 458/458/458 426/426/426 425/425/425
f 425/425/425 459/459/459 460/460/460
f 460/460/460 428/428/428 427/427/427
f 427/427/427 461/461/461 462/462/462
f 462/462/462 430/430/430 429/429/429
f 429/429/429 463/463/463 464/464/464
f 464/464/464 432/432/432 431/431/431
f 431/431/431 434/434/434 433/433/433
f 433/433/433 436/436/436 435/435/435
f 435/435/435 438/438/438 437/437/437
f 437/437/437 440/440/440 439/439/439
